<svg width="30" height="30" viewBox="0 0 30 30" fill="none" xmlns="http://www.w3.org/2000/svg">
<g id="vk">
<g id="Capa_1">
<g id="Group">
<path id="XMLID_11_" fill-rule="evenodd" clip-rule="evenodd" d="M14.8933 29.7865C23.1186 29.7865 29.7865 23.1186 29.7865 14.8933C29.7865 6.66795 23.1186 0 14.8933 0C6.66795 0 0 6.66795 0 14.8933C0 23.1186 6.66795 29.7865 14.8933 29.7865Z" fill="#4D76A1"/>
<path id="Shape" fill-rule="evenodd" clip-rule="evenodd" d="M14.3307 21.4251H15.4996C15.4996 21.4251 15.8527 21.3864 16.033 21.192C16.1989 21.0136 16.1936 20.6786 16.1936 20.6786C16.1936 20.6786 16.1708 19.1101 16.8987 18.8791C17.6164 18.6516 18.5379 20.395 19.5146 21.0654C20.2532 21.5727 20.8144 21.4615 20.8144 21.4615L23.426 21.4251C23.426 21.4251 24.7922 21.341 24.1444 20.2668C24.0913 20.1789 23.7672 19.4722 22.2026 18.02C20.5651 16.5001 20.7844 16.7459 22.757 14.1168C23.9583 12.5157 24.4386 11.5381 24.2886 11.1195C24.1455 10.7207 23.2619 10.8261 23.2619 10.8261L20.3214 10.8444C20.3214 10.8444 20.1034 10.8147 19.9418 10.9113C19.7838 11.0061 19.6821 11.227 19.6821 11.227C19.6821 11.227 19.2167 12.466 18.596 13.5197C17.2866 15.7432 16.7631 15.8605 16.5491 15.7225C16.0513 15.4007 16.1756 14.4298 16.1756 13.7401C16.1756 11.5854 16.5024 10.687 15.5392 10.4544C15.2195 10.3772 14.9843 10.3262 14.1669 10.318C13.1177 10.3071 12.2296 10.3212 11.7268 10.5675C11.3923 10.7313 11.1342 11.0964 11.2914 11.1173C11.4857 11.1434 11.9259 11.236 12.1593 11.5538C12.4606 11.9637 12.45 12.8844 12.45 12.8844C12.45 12.8844 12.6231 15.4209 12.0457 15.736C11.6493 15.9521 11.1056 15.5109 9.93822 13.4937C9.34008 12.4604 8.88848 11.3183 8.88848 11.3183C8.88848 11.3183 8.8014 11.1049 8.64609 10.9907C8.4576 10.8524 8.19424 10.8083 8.19424 10.8083L5.39999 10.8266C5.39999 10.8266 4.98052 10.8383 4.82654 11.0207C4.68955 11.1829 4.81565 11.5185 4.81565 11.5185C4.81565 11.5185 7.00326 16.6365 9.48025 19.2158C11.7515 21.5804 14.3307 21.4251 14.3307 21.4251Z" fill="white"/>
</g>
</g>
</g>
</svg>
