<svg width="30" height="30" viewBox="0 0 30 30" fill="none" xmlns="http://www.w3.org/2000/svg">
<g id="odnoklassniki-logo">
<g id="Capa_1">
<g id="Group">
<path id="Shape" fill-rule="evenodd" clip-rule="evenodd" d="M14.9758 12.4C16.4045 12.3948 17.5423 11.2472 17.5371 9.81545C17.5319 8.38311 16.3916 7.24341 14.9623 7.24219C13.5211 7.24066 12.3701 8.40147 12.3811 9.84668C12.3918 11.2732 13.5425 12.4053 14.9758 12.4Z" fill="#F18A19"/>
<path id="Shape_2" fill-rule="evenodd" clip-rule="evenodd" d="M14.9617 0C6.69857 0 0 6.69888 0 14.9617C0 23.2246 6.69857 29.9235 14.9617 29.9235C23.2249 29.9235 29.9235 23.2246 29.9235 14.9617C29.9235 6.69888 23.2249 0 14.9617 0ZM14.9832 4.5499C17.8974 4.55786 20.2365 6.94163 20.2215 9.88806C20.2068 12.7665 17.8295 15.0995 14.9201 15.0897C12.0404 15.0799 9.67867 12.6924 9.69582 9.80816C9.71204 6.89235 12.075 4.54194 14.9832 4.5499ZM20.8858 17.1603C20.2414 17.8218 19.4657 18.3006 18.6043 18.6346C17.79 18.9502 16.8977 19.1091 16.0142 19.215C16.148 19.3601 16.2107 19.4314 16.294 19.5147C17.4928 20.7199 18.6973 21.919 19.8921 23.1276C20.2993 23.5396 20.3841 24.0502 20.16 24.5287C19.9154 25.0521 19.3665 25.3962 18.8281 25.3592C18.487 25.3356 18.221 25.1663 17.985 24.9285C17.0801 24.0181 16.1581 23.1239 15.2721 22.1963C15.0135 21.9263 14.8898 21.9778 14.6617 22.2122C13.7516 23.1496 12.8265 24.0719 11.8962 24.9894C11.4784 25.4014 10.9812 25.4761 10.4963 25.2404C9.98112 24.9912 9.65357 24.465 9.67867 23.9357C9.69643 23.5788 9.87214 23.3051 10.1177 23.0608C11.3045 21.8764 12.4877 20.6884 13.6711 19.5012C13.7498 19.4226 13.8227 19.339 13.9368 19.2165C12.3227 19.0479 10.867 18.6505 9.62082 17.6761C9.46592 17.5549 9.30643 17.438 9.16561 17.302C8.6198 16.7783 8.565 16.178 8.99633 15.5602C9.36582 15.0312 9.98541 14.8898 10.6298 15.1938C10.7547 15.2522 10.8735 15.3263 10.9873 15.4047C13.3096 17.0005 16.5 17.0443 18.8314 15.476C19.0622 15.2997 19.3093 15.1546 19.5955 15.0814C20.1514 14.9382 20.6706 15.143 20.9688 15.6297C21.3101 16.1859 21.3061 16.7284 20.8858 17.1603Z" fill="#F18A19"/>
</g>
</g>
</g>
</svg>
