<svg width="40" height="40" viewBox="0 0 40 40" fill="none" xmlns="http://www.w3.org/2000/svg">
<rect width="40" height="40" rx="4" fill="#3B3E44" fill-opacity="0.5"/>
<path opacity="0.8" fill-rule="evenodd" clip-rule="evenodd" d="M22.4219 24.0781L21.0156 25.4844L15.0156 19.4844L21.0156 13.4844L22.4219 14.8906L17.8281 19.4844L22.4219 24.0781Z" fill="white"/>
</svg>
