<svg width="16" height="11" viewBox="0 0 16 11" fill="none" xmlns="http://www.w3.org/2000/svg">
<path fill-rule="evenodd" clip-rule="evenodd" d="M7.91903 3.71798C8.45492 3.71798 8.91866 3.91379 9.31028 4.3054C9.70189 4.69701 9.89769 5.16075 9.89769 5.69664C9.89769 6.23253 9.70189 6.69627 9.31028 7.08788C8.91866 7.47949 8.45492 7.6753 7.91903 7.6753C7.38314 7.6753 6.9194 7.47949 6.52779 7.08788C6.13618 6.69627 5.94038 6.23253 5.94038 5.69664C5.94038 5.16075 6.13618 4.69701 6.52779 4.3054C6.9194 3.91379 7.38314 3.71798 7.91903 3.71798ZM7.91903 9.0047C8.82592 9.0047 9.60398 8.68009 10.2532 8.03084C10.9025 7.38159 11.2271 6.60353 11.2271 5.69664C11.2271 4.78975 10.9025 4.01169 10.2532 3.36244C9.60398 2.71319 8.82592 2.38857 7.91903 2.38857C7.01214 2.38857 6.23409 2.71319 5.58484 3.36244C4.93559 4.01169 4.61097 4.78975 4.61097 5.69664C4.61097 6.60353 4.93559 7.38159 5.58484 8.03084C6.23409 8.68009 7.01214 9.0047 7.91903 9.0047ZM7.91903 0.75C9.54731 0.75 11.021 1.20344 12.3401 2.11033C13.6592 3.01721 14.6073 4.21264 15.1844 5.69664C14.6073 7.18064 13.6592 8.37606 12.3401 9.28295C11.021 10.1898 9.54731 10.6433 7.91903 10.6433C6.29076 10.6433 4.81708 10.1898 3.49797 9.28295C2.17886 8.37606 1.23077 7.18064 0.653656 5.69664C1.23077 4.21264 2.17886 3.01721 3.49797 2.11033C4.81708 1.20344 6.29076 0.75 7.91903 0.75Z" fill="#999999"/>
</svg>
