<svg width="50" height="50" viewBox="0 0 50 50" fill="none" xmlns="http://www.w3.org/2000/svg">
<rect width="50" height="50" rx="4" fill="black" fill-opacity="0.3"/>
<path fill-rule="evenodd" clip-rule="evenodd" d="M35.9531 17.1094L27.5859 25.4766L35.9531 33.8438L33.8438 35.9531L25.4766 27.5859L17.1094 35.9531L15 33.8438L23.3672 25.4766L15 17.1094L17.1094 15L25.4766 23.3672L33.8438 15L35.9531 17.1094Z" fill="white"/>
</svg>
