<svg width="30" height="30" viewBox="0 0 30 30" fill="none" xmlns="http://www.w3.org/2000/svg">
<g id="facebook">
<g id="Capa_1">
<g id="Group">
<path id="Oval" fill-rule="evenodd" clip-rule="evenodd" d="M14.8933 29.7865C23.1186 29.7865 29.7865 23.1186 29.7865 14.8933C29.7865 6.66795 23.1186 0 14.8933 0C6.66795 0 0 6.66795 0 14.8933C0 23.1186 6.66795 29.7865 14.8933 29.7865Z" fill="#3B5998"/>
<path id="Shape" fill-rule="evenodd" clip-rule="evenodd" d="M18.6374 15.4763H15.9799V25.2123H11.9535V15.4763H10.0386V12.0547H11.9535V9.84058C11.9535 8.25721 12.7057 5.77783 16.0157 5.77783L18.9982 5.79031V9.11155H16.8342C16.4793 9.11155 15.9802 9.28889 15.9802 10.0442V12.0579H18.9892L18.6374 15.4763Z" fill="white"/>
</g>
</g>
</g>
</svg>
