<svg width="40" height="40" viewBox="0 0 40 40" fill="none" xmlns="http://www.w3.org/2000/svg">
<path d="M0 4C0 1.79086 1.79086 0 4 0H40V40H4C1.79086 40 0 38.2091 0 36V4Z" fill="white" fill-opacity="0.5"/>
<path opacity="0.5" d="M16.5781 24.5938L21.1719 20L16.5781 15.4062L17.9844 14L23.9844 20L17.9844 26L16.5781 24.5938Z" fill="#4A4A4A"/>
</svg>
