<svg width="19" height="19" viewBox="0 0 19 19" fill="none" xmlns="http://www.w3.org/2000/svg">
<path fill-rule="evenodd" clip-rule="evenodd" d="M0 7.91187V10.1272H13.7139L7.43716 16.4567L9.01953 18.0391L18.0391 9.01953L9.01953 0L7.43716 1.58237L13.7139 7.91187H0Z" fill="#373A3C"/>
</svg>
